{
  "AWSTemplateFormatVersion" : "2010-09-09",

  "Resources" : {
    "TomcatInstance": {
      "Type": "AWS::EC2::Instance",
      "Metadata" : {


        "AWS::CloudFormation::Init" : {
          "configSets" : {
            "Install" : [ "Install" ]
          },

          "Install" : {
            "packages" : {
               "yum" : {    
                  "java-1.8.0-openjdk" : [],
				  "tomcat8" : [],
				  "tomcat8-webapps" : [],
				  "tomcat8-docs-webapp" : [],
				  "tomcat8-admin-webapps" : []
                }
             },
			 "files" : {
			 
                "/usr/share/tomcat8/webapps/jenkins.war" : {
                   "source" : "http://mirrors.jenkins.io/war/latest/jenkins.war",
                   "mode"   : "000500",
                   "owner"  : "tomcat",
                   "group"  : "tomcat"
                },
			  "/etc/cfn/cfn-hup.conf" : {
                "content" : { "Fn::Join" : ["", [
                  "[main]\n",
                  "stack=", { "Ref" : "AWS::StackId" }, "\n",
                  "region=", { "Ref" : "AWS::Region" }, "\n"
                ]]},
                "mode"    : "000400",
                "owner"   : "root",
                "group"   : "root"
              },

              "/etc/cfn/hooks.d/cfn-auto-reloader.conf" : {
                "content": { "Fn::Join" : ["", [
                  "[cfn-auto-reloader-hook]\n",
                  "triggers=post.update\n",
                  "path=Resources.TomcatInstance.Metadata.AWS::CloudFormation::Init\n",
                  "action=/opt/aws/bin/cfn-init -v ",
                  "         --stack ", { "Ref" : "AWS::StackName" },
                  "         --resource TomcatInstance ",
                  "         --configsets Install ",
                  "         --region ", { "Ref" : "AWS::Region" }, "\n",
                  "runas=root\n"
                ]]}
				}
              },
			  "services" : {
              "sysvinit" : {  
			  "cfn-hup" : { "enabled" : "true", "ensureRunning" : "true",
                              "files" : ["/etc/cfn/cfn-hup.conf", "/etc/cfn/hooks.d/cfn-auto-reloader.conf"]}
              }
            }
	     }
	   }
	  },
      "Properties": {
                "ImageId": "ami-7c87d913",
                "InstanceType": "t2.micro",
                "KeyName": "newpair",
                "SecurityGroupIds": ["sg-b29dfcd9"],
                "SubnetId": "subnet-c022db8c",
                "UserData"       : { "Fn::Base64" : { "Fn::Join" : ["", [
                      "#!/bin/bash -xe\n",
                      "yum install -y aws-cfn-bootstrap\n",
                      

                     "# Install the files and packages from the metadata\n",
                     "/opt/aws/bin/cfn-init -v ",
                     "         --stack ", { "Ref" : "AWS::StackName" },
                     "         --resource TomcatInstance ",
                     "         --configsets Install ",
                     "         --region ", { "Ref" : "AWS::Region" }, "\n",
                     "update-alternatives --set java /usr/lib/jvm/jre-1.8.0-openjdk.x86_64/bin/java \n",
					 "chown -R tomcat:tomcat /usr/share/tomcat8 \n",
					 "service tomcat8 start \n",
				     "/opt/aws/bin/cfn-signal -e $? ",
                     "         --stack ", { "Ref" : "AWS::StackName" },
                     "         --resource TomcatInstance ",
                     "         --region ", { "Ref" : "AWS::Region" }, "\n"
					
					]]}
					}
	        },
			         "CreationPolicy" : {
                     "ResourceSignal" : {
                      "Timeout" : "PT5M"
                      }
                      }
		
		    }
		 }
	}
		